[
  {
    "essential": true,
    "image": "${image_url_api}",
    "memoryReservation": 128,
    "name": "${container_name_api}",
    "portMappings": [
      {
        "containerPort": 5000,
        "hostPort": 0
      }
    ],
    "logConfiguration": {
        "logDriver": "awslogs",
        "options": {
            "awslogs-group": "${log_group_name}",
            "awslogs-region": "${log_group_region}",
            "awslogs-stream-prefix": "api"
        }
      }
  }
]